{
    "urls": 
    [
{"name":"仓2","url":"https://too.st/dbm"},//https://gitlab.com/65012833/tvb/-/raw/main/ys/ys.json
{"name":"饭太硬","url":"http://www.饭太硬.com/tv"},                 //  http://饭.eu.org/tv        http://fty.xxooo.cf/tv        http://fty.888484.xyz/tv
{"name":"肥猫","url":"http://肥猫.com"},       //http://肥猫.com
{"name":"仓4","url":"https://too.st/dbk"},
{"name":"仓1","url":"https://too.st/dbl"},//https://github.moeyy.xyz/https://raw.githubusercontent.com/longgogo/ys/main/YS.json  ////https://ghfast.top/https://raw.githubusercontent.com/longgogo/ys/refs/heads/main/YS.json
{"name":"仓3","url":"https://too.st/dbn"},//https://notabug.org/tvlive/ys/raw/master/YS.json
{"name":"潇洒线路","url":"https://github.moeyy.xyz/https://raw.githubusercontent.com/PizazzGY/TVBox/main/api.json"},
{"name":"香雅情","url":"https://github.moeyy.xyz/https://raw.githubusercontent.com/xyq254245/xyqonlinerule/main/XYQTVBox.json"}



                                                             
         
       



//{"name":" ","url":" "},

    ]
}